{
    "NSU_CRG": {
        "description": "xxx",
        "type": "number",
        "title": "xxx"
    },
    "NSU_VCG": {
        "description": "xxx",
        "type": "number",
        "title": "xxx"
    },
    "DAT_VSN_SUP": {
        "format": "YYYY-MM-dd'T'HH:mm:ss.SSSZ",
        "description": "Date de suppression du sous objet",
        "type": "date",
        "title": "Date de suppression du sous objet"
    },
    "COD_UTL_CRG": {
        "description": "Code util Critère gestion",
        "type": "string",
        "title": "Code util Critère gestion"
    },
    "DAP_L55": {
        "format": "YYYY-MM-dd'T'HH:mm:ss.SSSZ",
        "description": "date appli ri val Crit.gestion",
        "type": "date",
        "title": "date appli ri val Crit.gestion"
    },
    "NAT_MVT": {
        "description": "Code mouvement (Création, Modification, Suppression, Non modifié)",
        "type": "string",
        "title": "Code mouvement"
    },
    "DAT_VSN_MAJ": {
        "format": "YYYY-MM-dd'T'HH:mm:ss.SSSZ",
        "description": "Date de modification du sous objet",
        "type": "date",
        "title": "Date de modification du sous objet"
    },
    "LIB_VCG": {
        "description": "libellé valeur Critère gestion",
        "type": "array",
        "title": "libellé valeur Critère gestion",
        "items": {
            "type": "object",
            "properties": {
                "LAN": {
                    "description": "LAN",
                    "type": "string",
                    "title": "LAN"
                },
                "LABEL": {
                    "description": "LABEL",
                    "type": "string",
                    "title": "LABEL"
                },
                "text": {
                    "description": "Value",
                    "type": "string",
                    "title": "Value"
                }
            }
        }
    },
    "VAL_VCG": {
        "description": "valeur Critère gestion",
        "type": "string",
        "title": "valeur Critère gestion"
    },
    "DAT_FIN_L55": {
        "format": "YYYY-MM-dd'T'HH:mm:ss.SSSZ",
        "description": "dat fin appli ri val crit.gest",
        "type": "date",
        "title": "dat fin appli ri val crit.gest"
    },
    "LIB_CRG": {
        "description": "Libellé Critère gestion",
        "type": "array",
        "title": "Libellé Critère gestion",
        "items": {
            "type": "object",
            "properties": {
                "LAN": {
                    "description": "LAN",
                    "type": "string",
                    "title": "LAN"
                },
                "LABEL": {
                    "description": "LABEL",
                    "type": "string",
                    "title": "LABEL"
                },
                "text": {
                    "description": "Value",
                    "type": "string",
                    "title": "Value"
                }
            }
        }
    }
}