{
  "$id": "hello_world.json",
  "$schema": "http://json-schema.org/draft-07/schema#",
  "title": "This JSON Schema file was generated from hello_world.xsd on Mon Nov 25 2019 17:59:23 GMT+0100 (GMT+01:00).  For more information please see http://www.xsd2jsonschema.org",
  "description": "Schema tag attributes: xmlns='urn:auchan.com.schemas.Produit.IGR_v1.0.xsd' xmlns:ns0='urn:auchan.com.schemas.Produit.IGR_v1.0.xsd' xmlns:ns1='urn:auchan.com.schemas.Entete.IGR_v1.0.xsd' xmlns:xs='http://www.w3.org/2001/XMLSchema' targetNamespace='urn:auchan.com.schemas.Produit.IGR_v1.0.xsd' elementFormDefault='unqualified' attributeFormDefault='unqualified' version='4.1.5'",
  "type": "object",
  "anyOf": [
    {
      "required": [
        "arrayOfMSG"
      ]
    },
    {
      "required": [
        "MSG"
      ]
    },
    {
      "required": [
        "RIN"
      ]
    }
  ],
  "properties": {
    "arrayOfMSG": {
      "$ref": "#/definitions/arrayOfMSG"
    },
    "MSG": {
      "$ref": "#/definitions/MSG"
    },
    "RIN": {
      "$ref": "#/definitions/RIN"
    }
  },
  "definitions": {
    "arrayOfMSG": {
      "type": "object",
      "properties": {
        "MSG": {
          "oneOf": [
            {
              "$ref": "#/definitions/MSG"
            },
            {
              "type": "array",
              "items": {
                "$ref": "#/definitions/MSG"
              }
            }
          ]
        }
      }
    },
    "MSG": {
      "type": "object",
      "properties": {
        "ns1:HEADER": {
          "$ref": "FORWARD_REFERENCE#/to/urn:auchan.com.schemas.Entete.IGR_v1.0.xsd/ns1:HEADER"
        },
        "RIN": {
          "$ref": "#/definitions/RIN"
        }
      },
      "required": [
        "ns1:HEADER",
        "RIN"
      ]
    },
    "RIN": {
      "type": "object",
      "properties": {
        "NSU_RIN": {
          "type": "integer",
          "minimum": -9223372036854776000,
          "maximum": 9223372036854776000
        },
        "COD_UTL_RIN": {
          "type": "string"
        },
        "NSQ_T16": {
          "type": "integer",
          "minimum": -9223372036854776000,
          "maximum": 9223372036854776000
        },
        "COD_UTL_T16": {
          "type": "string"
        },
        "NSQ_T21": {
          "type": "integer",
          "minimum": -9223372036854776000,
          "maximum": 9223372036854776000
        },
        "COD_UTL_T21": {
          "type": "string"
        },
        "NSQ_T31": {
          "type": "integer",
          "minimum": -9223372036854776000,
          "maximum": 9223372036854776000
        },
        "COD_UTL_T31": {
          "type": "string"
        },
        "NSQ_T34": {
          "type": "integer",
          "minimum": -9223372036854776000,
          "maximum": 9223372036854776000
        },
        "COD_UTL_T34": {
          "type": "string"
        },
        "NSQ_T35": {
          "type": "integer",
          "minimum": -9223372036854776000,
          "maximum": 9223372036854776000
        },
        "COD_UTL_T35": {
          "type": "string"
        },
        "NSQ_T33_CDE": {
          "type": "integer",
          "minimum": -9223372036854776000,
          "maximum": 9223372036854776000
        },
        "COD_UTL_T33_CDE": {
          "type": "string"
        },
        "NSQ_T33_FACT": {
          "type": "integer",
          "minimum": -9223372036854776000,
          "maximum": 9223372036854776000
        },
        "COD_UTL_T33_FACT": {
          "type": "string"
        },
        "NSQ_T08": {
          "type": "integer",
          "minimum": -9223372036854776000,
          "maximum": 9223372036854776000
        },
        "COD_UTL_T08": {
          "type": "string"
        },
        "NSQ_T51": {
          "type": "integer",
          "minimum": -9223372036854776000,
          "maximum": 9223372036854776000
        },
        "COD_UTL_T51": {
          "type": "string"
        },
        "NSU_MRQ": {
          "type": "integer",
          "minimum": -9223372036854776000,
          "maximum": 9223372036854776000
        },
        "LIB_MRQ": {
          "oneOf": [
            {},
            {
              "type": "array",
              "items": {}
            }
          ]
        },
        "NSQ_T33_VTE": {
          "type": "integer",
          "minimum": -9223372036854776000,
          "maximum": 9223372036854776000
        },
        "COD_UTL_T33_VTE": {
          "type": "string"
        },
        "NSQ_T33_FAB": {
          "type": "integer",
          "minimum": -9223372036854776000,
          "maximum": 9223372036854776000
        },
        "COD_UTL_T33_FAB": {
          "type": "string"
        },
        "NSQ_T41": {
          "type": "integer",
          "minimum": -9223372036854776000,
          "maximum": 9223372036854776000
        },
        "COD_UTL_T41": {
          "type": "string"
        },
        "LIB_001_RIN": {
          "oneOf": [
            {},
            {
              "type": "array",
              "items": {}
            }
          ]
        },
        "LIB_002_RIN": {
          "oneOf": [
            {},
            {
              "type": "array",
              "items": {}
            }
          ]
        },
        "LIB_001_BLS_RIN": {
          "oneOf": [
            {},
            {
              "type": "array",
              "items": {}
            }
          ]
        },
        "LIB_002_BLS_RIN": {
          "oneOf": [
            {},
            {
              "type": "array",
              "items": {}
            }
          ]
        },
        "LIB_ECS_RIN": {
          "oneOf": [
            {},
            {
              "type": "array",
              "items": {}
            }
          ]
        },
        "IND_CMB_RIN": {
          "oneOf": [
            {
              "type": "boolean"
            },
            {
              "type": "integer",
              "minimum": 0,
              "maximum": 1
            }
          ]
        },
        "IND_VTE_RIN": {
          "oneOf": [
            {
              "type": "boolean"
            },
            {
              "type": "integer",
              "minimum": 0,
              "maximum": 1
            }
          ]
        },
        "IND_PRM_RIN": {
          "oneOf": [
            {
              "type": "boolean"
            },
            {
              "type": "integer",
              "minimum": 0,
              "maximum": 1
            }
          ]
        },
        "IND_MSR_VRB_RIN": {
          "oneOf": [
            {
              "type": "boolean"
            },
            {
              "type": "integer",
              "minimum": 0,
              "maximum": 1
            }
          ]
        },
        "IND_DCL_RIN": {
          "oneOf": [
            {
              "type": "boolean"
            },
            {
              "type": "integer",
              "minimum": 0,
              "maximum": 1
            }
          ]
        },
        "IND_EAN_FRN_RIN": {
          "oneOf": [
            {
              "type": "boolean"
            },
            {
              "type": "integer",
              "minimum": 0,
              "maximum": 1
            }
          ]
        },
        "IND_LOT_RIN": {
          "oneOf": [
            {
              "type": "boolean"
            },
            {
              "type": "integer",
              "minimum": 0,
              "maximum": 1
            }
          ]
        },
        "IND_VAR_RIN": {
          "oneOf": [
            {
              "type": "boolean"
            },
            {
              "type": "integer",
              "minimum": 0,
              "maximum": 1
            }
          ]
        },
        "NBR_TOT_CPO_RIN": {
          "type": "integer",
          "minimum": -9223372036854776000,
          "maximum": 9223372036854776000
        },
        "CNT_RIN": {
          "type": "number"
        },
        "FCG_RIN": {
          "type": "number"
        },
        "HAU_RIN": {
          "type": "number"
        },
        "PRF_RIN": {
          "type": "number"
        },
        "PDS_BRT_RIN": {
          "type": "number"
        },
        "DAT_CRE_RIN": {
          "type": "string",
          "pattern": "-?([1-9][0-9]{3,}|0[0-9]{3})-(0[1-9]|1[0-2])-(0[1-9]|[12][0-9]|3[01])(Z|(\\+|-)((0[0-9]|1[0-3]):[0-5][0-9]|14:00))?"
        },
        "DAT_MAJ_RIN": {
          "type": "string",
          "pattern": "-?([1-9][0-9]{3,}|0[0-9]{3})-(0[1-9]|1[0-2])-(0[1-9]|[12][0-9]|3[01])(Z|(\\+|-)((0[0-9]|1[0-3]):[0-5][0-9]|14:00))?"
        },
        "DAR_RIN": {
          "type": "string",
          "pattern": "-?([1-9][0-9]{3,}|0[0-9]{3})-(0[1-9]|1[0-2])-(0[1-9]|[12][0-9]|3[01])(Z|(\\+|-)((0[0-9]|1[0-3]):[0-5][0-9]|14:00))?"
        },
        "MTF_MEA_RIN": {
          "type": "string"
        },
        "NBR_EXM_RIN": {
          "type": "integer",
          "minimum": -9223372036854776000,
          "maximum": 9223372036854776000
        },
        "IND_ARR_RIN": {
          "oneOf": [
            {
              "type": "boolean"
            },
            {
              "type": "integer",
              "minimum": 0,
              "maximum": 1
            }
          ]
        },
        "IND_TSI_RIN": {
          "oneOf": [
            {
              "type": "boolean"
            },
            {
              "type": "integer",
              "minimum": 0,
              "maximum": 1
            }
          ]
        },
        "FCV_UVC_RIN": {
          "type": "number"
        },
        "FCV_UCF_RIN": {
          "type": "number"
        },
        "PDS_NET_RIN": {
          "type": "number"
        },
        "VOL_BRT_RIN": {
          "type": "number"
        },
        "VOL_NET_RIN": {
          "type": "number"
        },
        "IND_UMD_RIN": {
          "oneOf": [
            {
              "type": "boolean"
            },
            {
              "type": "integer",
              "minimum": 0,
              "maximum": 1
            }
          ]
        },
        "DAT_DNC_RIN": {
          "type": "string",
          "pattern": "-?([1-9][0-9]{3,}|0[0-9]{3})-(0[1-9]|1[0-2])-(0[1-9]|[12][0-9]|3[01])(Z|(\\+|-)((0[0-9]|1[0-3]):[0-5][0-9]|14:00))?"
        },
        "DAT_FNC_RIN": {
          "type": "string",
          "pattern": "-?([1-9][0-9]{3,}|0[0-9]{3})-(0[1-9]|1[0-2])-(0[1-9]|[12][0-9]|3[01])(Z|(\\+|-)((0[0-9]|1[0-3]):[0-5][0-9]|14:00))?"
        },
        "IND_PSI_RIN": {
          "oneOf": [
            {
              "type": "boolean"
            },
            {
              "type": "integer",
              "minimum": 0,
              "maximum": 1
            }
          ]
        },
        "DAT_DSI_RIN": {
          "type": "string",
          "pattern": "-?([1-9][0-9]{3,}|0[0-9]{3})-(0[1-9]|1[0-2])-(0[1-9]|[12][0-9]|3[01])(Z|(\\+|-)((0[0-9]|1[0-3]):[0-5][0-9]|14:00))?"
        },
        "DAT_FSI_RIN": {
          "type": "string",
          "pattern": "-?([1-9][0-9]{3,}|0[0-9]{3})-(0[1-9]|1[0-2])-(0[1-9]|[12][0-9]|3[01])(Z|(\\+|-)((0[0-9]|1[0-3]):[0-5][0-9]|14:00))?"
        },
        "NSU_SIT": {
          "type": "integer",
          "minimum": -9223372036854776000,
          "maximum": 9223372036854776000
        },
        "COD_UTL_SIT": {
          "type": "string"
        },
        "NSQ_T22": {
          "type": "integer",
          "minimum": -9223372036854776000,
          "maximum": 9223372036854776000
        },
        "COD_UTL_T22": {
          "type": "string"
        },
        "NBR_TCO_CMS_RIN": {
          "type": "integer",
          "minimum": -9223372036854776000,
          "maximum": 9223372036854776000
        },
        "DEP_RIN": {
          "type": "string",
          "pattern": "-?([1-9][0-9]{3,}|0[0-9]{3})-(0[1-9]|1[0-2])-(0[1-9]|[12][0-9]|3[01])(Z|(\\+|-)((0[0-9]|1[0-3]):[0-5][0-9]|14:00))?"
        },
        "NBR_RIN_CPO_RIN": {
          "type": "integer",
          "minimum": -9223372036854776000,
          "maximum": 9223372036854776000
        },
        "DAT_PCN_RIN": {
          "type": "string",
          "pattern": "-?([1-9][0-9]{3,}|0[0-9]{3})-(0[1-9]|1[0-2])-(0[1-9]|[12][0-9]|3[01])(Z|(\\+|-)((0[0-9]|1[0-3]):[0-5][0-9]|14:00))?"
        },
        "QTE_PFA_RIN": {
          "type": "number"
        },
        "NSQ_T13": {
          "type": "integer",
          "minimum": -9223372036854776000,
          "maximum": 9223372036854776000
        },
        "COD_UTL_T13": {
          "type": "string"
        },
        "NSQ_T3D": {
          "type": "integer",
          "minimum": -9223372036854776000,
          "maximum": 9223372036854776000
        },
        "COD_UTL_T3D": {
          "type": "string"
        },
        "VAL_GRT_RIN": {
          "type": "number"
        },
        "NSQ_T3E": {
          "type": "integer",
          "minimum": -9223372036854776000,
          "maximum": 9223372036854776000
        },
        "COD_UTL_T3E": {
          "type": "string"
        },
        "COD_UTL_CUG": {
          "type": "string"
        },
        "COD_UTL_MRQ": {
          "type": "string"
        },
        "ART": {
          "oneOf": [
            {},
            {
              "type": "array",
              "items": {}
            }
          ]
        },
        "NCL": {
          "oneOf": [
            {},
            {
              "type": "array",
              "items": {}
            }
          ]
        },
        "EXT": {
          "oneOf": [
            {},
            {
              "type": "array",
              "items": {}
            }
          ]
        },
        "DIG": {
          "oneOf": [
            {},
            {
              "type": "array",
              "items": {}
            }
          ]
        },
        "SIT": {
          "oneOf": [
            {},
            {
              "type": "array",
              "items": {}
            }
          ]
        },
        "NDA": {
          "properties": {
            "NSU_NDA": {
              "type": "integer",
              "minimum": -9223372036854776000,
              "maximum": 9223372036854776000
            },
            "COD_UTL_NDA": {
              "type": "string"
            },
            "NSU_CAL": {
              "type": "integer",
              "minimum": -9223372036854776000,
              "maximum": 9223372036854776000
            },
            "LIB_CAL": {
              "type": "string"
            },
            "NSQ_T46": {
              "type": "integer",
              "minimum": -9223372036854776000,
              "maximum": 9223372036854776000
            },
            "COD_UTL_T46": {
              "type": "string"
            },
            "IND_DAQ_ILR": {
              "oneOf": [
                {
                  "type": "boolean"
                },
                {
                  "type": "integer",
                  "minimum": 0,
                  "maximum": 1
                }
              ]
            },
            "@NAT_MVT": {
              "type": "string"
            },
            "@DAT_VSN_MAJ": {
              "type": "string"
            },
            "@DAT_VSN_SUP": {
              "type": "string"
            }
          },
          "required": [
            "NSU_NDA",
            "COD_UTL_NDA",
            "IND_DAQ_ILR"
          ]
        },
        "ETQ": {
          "oneOf": [
            {},
            {
              "type": "array",
              "items": {}
            }
          ]
        },
        "CCL": {
          "oneOf": [
            {},
            {
              "type": "array",
              "items": {}
            }
          ]
        },
        "BNR": {
          "properties": {
            "TXT_BLN_BNR": {
              "type": "string"
            },
            "@NAT_MVT": {
              "type": "string"
            },
            "@DAT_VSN_MAJ": {
              "type": "string"
            },
            "@DAT_VSN_SUP": {
              "type": "string"
            }
          },
          "required": [
            "TXT_BLN_BNR"
          ]
        },
        "FCO": {
          "oneOf": [
            {},
            {
              "type": "array",
              "items": {}
            }
          ]
        },
        "TAX": {
          "oneOf": [
            {},
            {
              "type": "array",
              "items": {}
            }
          ]
        },
        "UEN": {
          "oneOf": [
            {},
            {
              "type": "array",
              "items": {}
            }
          ]
        },
        "SAV": {
          "oneOf": [
            {},
            {
              "type": "array",
              "items": {}
            }
          ]
        },
        "LRR": {
          "oneOf": [
            {},
            {
              "type": "array",
              "items": {}
            }
          ]
        },
        "DEC": {
          "oneOf": [
            {},
            {
              "type": "array",
              "items": {}
            }
          ]
        },
        "LBA": {
          "oneOf": [
            {},
            {
              "type": "array",
              "items": {}
            }
          ]
        },
        "RFR": {
          "oneOf": [
            {},
            {
              "type": "array",
              "items": {}
            }
          ]
        },
        "MCO": {
          "oneOf": [
            {},
            {
              "type": "array",
              "items": {}
            }
          ]
        },
        "LMU": {
          "oneOf": [
            {},
            {
              "type": "array",
              "items": {}
            }
          ]
        },
        "CVM": {
          "oneOf": [
            {},
            {
              "type": "array",
              "items": {}
            }
          ]
        },
        "@NAT_MVT": {
          "type": "string"
        },
        "@DAT_VSN_MAJ": {
          "type": "string"
        },
        "@DAT_VSN_SUP": {
          "type": "string"
        }
      },
      "required": [
        "NSU_RIN",
        "COD_UTL_RIN",
        "NSQ_T16",
        "COD_UTL_T16",
        "NSQ_T21",
        "COD_UTL_T21",
        "COD_UTL_T08",
        "COD_UTL_T51",
        "IND_CMB_RIN",
        "IND_VTE_RIN",
        "IND_PRM_RIN",
        "IND_MSR_VRB_RIN",
        "IND_DCL_RIN",
        "IND_EAN_FRN_RIN",
        "IND_LOT_RIN",
        "IND_VAR_RIN",
        "DAT_CRE_RIN",
        "IND_ARR_RIN",
        "IND_TSI_RIN",
        "IND_UMD_RIN",
        "IND_PSI_RIN",
        "NCL"
      ]
    }
  }
}